…
``` r
setequal(union(train_01$idx, test_01$idx),  1:201)
```

    ## [1] TRUE

resample objects are not tibbles. Some model functions, like `lm()`, can
take resample objects as input, but `loess()` cannot. In order to use
`loess()`, we’ll need to turn the resample objects into tibbles.

``` r
as_tibble(test_01)
```

    ## # A tibble: 21 x 2
    ##        x     y
    ##    <dbl> <dbl>
    ##  1   0.5  36.6
    ##  2   3.5  18.5
    ##  3  10    26.8
    ##  4  21    79.3
    ##  5  26    68.5
    ##  6  31   102. 
    ##  7  38.5  76.4
    ##  8  40    73.6
    ##  9  42    37.1
    ## 10  50    40.5
    ## # … with 11 more rows
…
