…
## `geom_sf()`

`nc_74` contains data on deaths from Sudden Infant Death Syndrome (SIDS)
in 1974 for counties in North Carolina.

``` r
nc_1974
#> Simple feature collection with 100 features and 4 fields
#> geometry type:  MULTIPOLYGON
#> dimension:      XY
#> bbox:           xmin: -84.32385 ymin: 33.88199 xmax: -75.45698 ymax: 36.58965
#> epsg (SRID):    4267
#> proj4string:    +proj=longlat +datum=NAD27 +no_defs
#> # A tibble: 100 x 5
#>    fips  name     births  sids                                     geometry
#>    <chr> <chr>     <dbl> <dbl>                           <MULTIPOLYGON [°]>
#>  1 37009 Ashe       1091     1 (((-81.47276 36.23436, -81.54084 36.27251, …
#>  2 37005 Allegha…    487     0 (((-81.23989 36.36536, -81.24069 36.37942, …
#>  3 37171 Surry      3188     5 (((-80.45634 36.24256, -80.47639 36.25473, …
#>  4 37053 Curritu…    508     1 (((-76.00897 36.3196, -76.01735 36.33773, -…
#>  5 37131 Northam…   1421     9 (((-77.21767 36.24098, -77.23461 36.2146, -…
#>  6 37091 Hertford   1452     7 (((-76.74506 36.23392, -76.98069 36.23024, …
#>  7 37029 Camden      286     0 (((-76.00897 36.3196, -75.95718 36.19377, -…
#>  8 37073 Gates       420     0 (((-76.56251 36.34057, -76.60424 36.31498, …
#>  9 37185 Warren      968     4 (((-78.30876 36.26004, -78.28293 36.29188, …
#> 10 37169 Stokes     1612     1 (((-80.02567 36.25023, -80.45301 36.25709, …
#> # … with 90 more rows
```
…
